Gene Cloud Plot — prettyGeneCloud • GAMBLR.viz
…
#> # A tibble: 1,234 × 2
#>    Hugo_Symbol     n
#>    <fct>       <int>
#>  1 ACADM           1
#>  2 ACBD3           1
#>  3 ACBD6           1
#>  4 ACOT7           1
#>  5 ADAM30          1
#>  6 ADAMTS4         1
#>  7 ADSS            1
#>  8 AK2             1
#>  9 AKNAD1          1
#> 10 AL139147.1      1
#> # ℹ 1,224 more rows
…
